<?xml version="1.0" encoding="UTF-8" standalone="no"?>
<!-- Created with Inkscape (http://www.inkscape.org/) -->

<svg
   xmlns:dc="http://purl.org/dc/elements/1.1/"
   xmlns:cc="http://creativecommons.org/ns#"
   xmlns:rdf="http://www.w3.org/1999/02/22-rdf-syntax-ns#"
   xmlns:svg="http://www.w3.org/2000/svg"
   xmlns="http://www.w3.org/2000/svg"
   xmlns:xlink="http://www.w3.org/1999/xlink"
   xmlns:sodipodi="http://sodipodi.sourceforge.net/DTD/sodipodi-0.dtd"
   xmlns:inkscape="http://www.inkscape.org/namespaces/inkscape"
   width="100"
   height="150"
   id="svg3220"
   version="1.1"
   inkscape:version="0.48.4 r9939"
   sodipodi:docname="vorlage.svg"
   inkscape:export-filename="/home/jona/Arbeitsfläche/kartenspiel/deckv1/110.png"
   inkscape:export-xdpi="90"
   inkscape:export-ydpi="90">
  <defs
     id="defs3222">
    <linearGradient
       id="linearGradient4642">
      <stop
         style="stop-color:#000000;stop-opacity:1;"
         offset="0"
         id="stop4644" />
      <stop
         style="stop-color:#d3f0f9;stop-opacity:0;"
         offset="1"
         id="stop4646" />
    </linearGradient>
    <linearGradient
       inkscape:collect="always"
       xlink:href="#linearGradient4642"
       id="linearGradient4648"
       x1="54.836285"
       y1="183.87155"
       x2="39.936535"
       y2="108.59772"
       gradientUnits="userSpaceOnUse"
       gradientTransform="translate(1,1)" />
    <linearGradient
       inkscape:collect="always"
       xlink:href="#linearGradient4642-5"
       id="linearGradient4648-6"
       x1="54.836285"
       y1="183.87155"
       x2="39.936535"
       y2="108.59772"
       gradientUnits="userSpaceOnUse" />
    <linearGradient
       id="linearGradient4642-5">
      <stop
         style="stop-color:#ffffff;stop-opacity:1;"
         offset="0"
         id="stop4644-0" />
      <stop
         style="stop-color:#d3f0f9;stop-opacity:0;"
         offset="1"
         id="stop4646-7" />
    </linearGradient>
    <linearGradient
       gradientTransform="translate(-99,-149)"
       y2="108.59772"
       x2="39.936535"
       y1="154.46637"
       x1="40.192154"
       gradientUnits="userSpaceOnUse"
       id="linearGradient4665"
       xlink:href="#linearGradient4642-5"
       inkscape:collect="always" />
    <filter
       inkscape:collect="always"
       id="filter4878">
      <feGaussianBlur
         inkscape:collect="always"
         stdDeviation="1.4875"
         id="feGaussianBlur4880" />
    </filter>
  </defs>
  <sodipodi:namedview
     id="base"
     pagecolor="#ffffff"
     bordercolor="#666666"
     borderopacity="1.0"
     inkscape:pageopacity="0.0"
     inkscape:pageshadow="2"
     inkscape:zoom="3.2"
     inkscape:cx="-104.1425"
     inkscape:cy="56.646374"
     inkscape:document-units="px"
     inkscape:current-layer="layer16"
     showgrid="false"
     fit-margin-left="0.4"
     fit-margin-top="0"
     fit-margin-right="0"
     fit-margin-bottom="-0.6"
     inkscape:window-width="1920"
     inkscape:window-height="1005"
     inkscape:window-x="0"
     inkscape:window-y="25"
     inkscape:window-maximized="1"
     showguides="true"
     inkscape:guide-bbox="true">
    <sodipodi:guide
       orientation="0,1"
       position="0,59"
       id="guide3817" />
    <sodipodi:guide
       orientation="1,0"
       position="55,59"
       id="guide4203" />
    <sodipodi:guide
       orientation="1,0"
       position="45,59"
       id="guide4209" />
    <sodipodi:guide
       orientation="1,0"
       position="65,59"
       id="guide4211" />
    <sodipodi:guide
       orientation="0,1"
       position="45,134"
       id="guide4261" />
    <sodipodi:guide
       orientation="1,0"
       position="5,134"
       id="guide4263" />
    <sodipodi:guide
       orientation="0,1"
       position="0,16"
       id="guide4291" />
  </sodipodi:namedview>
  <metadata
     id="metadata3225">
    <rdf:RDF>
      <cc:Work
         rdf:about="">
        <dc:format>image/svg+xml</dc:format>
        <dc:type
           rdf:resource="http://purl.org/dc/dcmitype/StillImage" />
        <dc:title></dc:title>
      </cc:Work>
    </rdf:RDF>
  </metadata>
  <g
     inkscape:label="shaddow"
     inkscape:groupmode="layer"
     id="layer1"
     transform="translate(-470.19985,-588.79092)"
     style="display:inline"
     sodipodi:insensitive="true">
    <rect
       style="fill:#000000;fill-opacity:1;stroke:#000000;stroke-width:0;stroke-linecap:square;stroke-linejoin:miter;stroke-miterlimit:4;stroke-opacity:1;stroke-dasharray:none;stroke-dashoffset:0;filter:url(#filter4878)"
       id="rect3036-3-5-7-0-6"
       width="94"
       height="144"
       x="473.69986"
       y="591.29089"
       ry="8.0898714" />
  </g>
  <g
     inkscape:groupmode="layer"
     id="layer3"
     inkscape:label="bg"
     style="display:inline"
     sodipodi:insensitive="true">
    <rect
       style="fill:#efe6dd;fill-opacity:1;stroke:#000000;stroke-width:0;stroke-linecap:square;stroke-linejoin:miter;stroke-miterlimit:4;stroke-opacity:1;stroke-dasharray:none;stroke-dashoffset:0;display:inline"
       id="rect3036-3-5-7-0"
       width="94"
       height="144"
       x="3"
       y="3"
       ry="8.0898714" />
  </g>
  <g
     inkscape:groupmode="layer"
     id="layer5"
     inkscape:label="Top1"
     style="display:inline"
     sodipodi:insensitive="true">
    <rect
       style="fill:url(#linearGradient4648);fill-opacity:1;stroke:#000000;stroke-width:0;stroke-linecap:square;stroke-linejoin:miter;stroke-miterlimit:4;stroke-opacity:1;stroke-dasharray:none;stroke-dashoffset:0;display:inline"
       id="rect3036-3-5-7-0-64"
       width="94"
       height="144"
       x="3"
       y="3"
       ry="8.0898714" />
  </g>
  <g
     inkscape:groupmode="layer"
     id="layer6"
     inkscape:label="Top2"
     style="display:inline"
     sodipodi:insensitive="true">
    <rect
       style="fill:url(#linearGradient4665);fill-opacity:1;stroke:#000000;stroke-width:0;stroke-linecap:square;stroke-linejoin:miter;stroke-miterlimit:3.79999995;stroke-opacity:1;stroke-dasharray:none;stroke-dashoffset:0;display:inline"
       id="rect3036-3-5-7-0-64-1"
       width="94"
       height="144"
       x="-97"
       y="-147"
       ry="8.0898714"
       transform="scale(-1,-1)" />
  </g>
  <g
     inkscape:groupmode="layer"
     id="layer8"
     inkscape:label="Karo"
     style="display:none"
     sodipodi:insensitive="true">
    <path
       inkscape:connector-curvature="0"
       id="path3200-4"
       d="M 69.5,60 C 66.58959,65.893638 62.29857,71.082525 56.5,75.500001 62.29857,79.917473 66.58959,85.106362 69.5,91 72.4104,85.106362 76.70143,79.917473 82.5,75.500001 76.70143,71.082525 72.4104,65.893638 69.5,60 z"
       style="fill:#aa0000;fill-opacity:1;stroke:none;display:inline" />
    <path
       inkscape:connector-curvature="0"
       id="path3200-1-3"
       d="M 56.6129,5.0000004 C 55.58018,7.0912914 54.05756,8.9325094 52,10.5 c 2.05756,1.56749 3.58018,3.408709 4.6129,5.5 1.03273,-2.091291 2.55535,-3.93251 4.61291,-5.5 C 59.16825,8.9325094 57.64563,7.0912914 56.6129,5.0000004 z"
       style="fill:#aa0000;fill-opacity:1;stroke:none;display:inline" />
    <path
       inkscape:connector-curvature="0"
       id="path3200-1-9-5"
       d="m 43.1129,134 c -1.03272,2.09129 -2.55534,3.93251 -4.6129,5.5 2.05756,1.56749 3.58018,3.40871 4.6129,5.5 1.03273,-2.09129 2.55535,-3.93251 4.61291,-5.5 -2.05756,-1.56749 -3.58018,-3.40871 -4.61291,-5.5 z"
       style="fill:#aa0000;fill-opacity:1;stroke:none;display:inline" />
  </g>
  <g
     inkscape:groupmode="layer"
     id="layer7"
     inkscape:label="Herz"
     style="display:none"
     sodipodi:insensitive="true">
    <path
       style="fill:#aa0000;display:inline"
       id="path2417-2"
       d="m 68.818416,89.264576 c -0.645705,-0.831601 -2.258001,-2.452822 -3.582877,-3.602711 -3.925505,-3.407031 -4.459767,-3.900097 -6.053603,-5.586809 -2.938337,-3.109561 -4.186201,-6.233651 -4.181925,-10.469667 0.0021,-2.067855 0.124724,-2.864535 0.628589,-4.083429 0.854845,-2.067955 2.114075,-3.604608 3.723999,-4.544435 1.140253,-0.665643 1.702624,-0.961378 3.60677,-0.973477 1.991873,-0.01265 2.411186,0.254266 3.582877,0.994057 1.426149,0.900451 2.894058,2.824871 3.197495,4.191893 l 0.187411,0.84432 0.46217,-1.162823 c 2.611696,-6.571053 10.949924,-6.472741 13.85167,0.163321 0.920516,2.105145 1.021577,6.600156 0.205318,9.132173 -1.064778,3.302922 -3.064688,5.821011 -7.687797,9.679724 -3.031913,2.530613 -6.463347,6.359489 -6.702219,6.897259 -0.277288,0.624255 -0.01323,0.09783 -1.237878,-1.479396 z"
       inkscape:connector-curvature="0" />
    <g
       style="fill:#aa0000;display:inline"
       id="layer1-9-2-5"
       transform="matrix(0.01554348,0,0,0.01786399,51.46107,5.583839)">
      <path
         style="fill:#aa0000"
         id="path2417-5-6"
         d="M 297.29747,550.86823 C 283.52243,535.43191 249.1268,505.33855 220.86277,483.99412 137.11867,420.75228 125.72108,411.5999 91.719238,380.29088 29.03471,322.57071 2.413622,264.58086 2.5048478,185.95124 2.5493594,147.56739 5.1656152,132.77929 15.914734,110.15398 34.151433,71.768267 61.014996,43.244667 95.360052,25.799457 119.68545,13.443675 131.6827,7.9542046 172.30448,7.7296236 c 42.49329,-0.234834 51.43863,4.7197234 76.43471,18.4518354 30.42451,16.714318 61.7399,52.435708 68.21323,77.810591 l 3.9981,15.6724 9.85963,-21.584508 c 55.71617,-121.972928 233.59836,-120.148052 295.50229,3.031588 19.63767,39.07605 21.79364,122.51317 4.38012,169.51287 -22.71527,61.30937 -65.38001,108.05053 -164.00634,179.67658 -64.68082,46.97364 -137.88474,118.04586 -142.98067,128.02803 -5.91548,11.58753 -0.28216,1.8159 -26.40808,-27.46078 z"
         inkscape:connector-curvature="0" />
      <g
         id="g2221-3-4"
         transform="translate(129.28571,-64.285714)"
         style="fill:#aa0000" />
    </g>
    <g
       style="fill:#aa0000;display:inline"
       id="layer1-9-2-1-7"
       transform="matrix(-0.01554348,0,0,-0.01786399,48.086758,144.13674)">
      <path
         style="fill:#aa0000"
         id="path2417-5-0-7"
         d="M 297.29747,550.86823 C 283.52243,535.43191 249.1268,505.33855 220.86277,483.99412 137.11867,420.75228 125.72108,411.5999 91.719238,380.29088 29.03471,322.57071 2.413622,264.58086 2.5048478,185.95124 2.5493594,147.56739 5.1656152,132.77929 15.914734,110.15398 34.151433,71.768267 61.014996,43.244667 95.360052,25.799457 119.68545,13.443675 131.6827,7.9542046 172.30448,7.7296236 c 42.49329,-0.234834 51.43863,4.7197234 76.43471,18.4518354 30.42451,16.714318 61.7399,52.435708 68.21323,77.810591 l 3.9981,15.6724 9.85963,-21.584508 c 55.71617,-121.972928 233.59836,-120.148052 295.50229,3.031588 19.63767,39.07605 21.79364,122.51317 4.38012,169.51287 -22.71527,61.30937 -65.38001,108.05053 -164.00634,179.67658 -64.68082,46.97364 -137.88474,118.04586 -142.98067,128.02803 -5.91548,11.58753 -0.28216,1.8159 -26.40808,-27.46078 z"
         inkscape:connector-curvature="0" />
      <g
         id="g2221-3-8-8"
         transform="translate(129.28571,-64.285714)"
         style="fill:#aa0000" />
    </g>
  </g>
  <g
     inkscape:groupmode="layer"
     id="layer10"
     inkscape:label="Pik"
     style="display:none"
     sodipodi:insensitive="true">
    <g
       style="display:inline"
       inkscape:label="Livello 1"
       id="layer1-0-0"
       transform="matrix(0.145,0,0,0.12221264,-135.49762,172.63232)">
      <path
         inkscape:connector-curvature="0"
         style="font-size:732.08221436px;font-style:normal;font-weight:normal;fill:#000000;fill-opacity:1;stroke:none;font-family:Lello"
         d="m 1413.7767,-921.60938 c -55.0617,33.32508 -100,104.45391 -100,168.0625 0,28.79025 19.6119,46.25 44.5,46.25 21.2818,0 37.6413,-12.77436 43.2813,-32.90625 0.7338,-2.61937 1.1382,-3.8125 2.125,-3.8125 1.2789,0 1.875,2.60053 1.875,7.46875 0,19.53831 -11.1099,42.365 -20.0464,68.59375 3.8592,-1.13644 20.6274,-4.03125 28.2651,-4.03125 7.6377,0 24.4067,2.89481 28.2659,4.03125 -8.9364,-26.22875 -20.0471,-49.05544 -20.0471,-68.59375 0,-4.86822 0.5648,-7.46875 1.8437,-7.46875 0.9868,0 1.4225,1.19313 2.1563,3.8125 5.6399,20.13189 21.9995,32.90625 43.2812,32.90625 24.8881,0 44.5,-17.45975 44.5,-46.25 0,-63.60859 -44.9382,-134.73742 -100,-168.0625 z"
         id="path2169-1"
         sodipodi:nodetypes="cssssscscsssssc" />
    </g>
    <g
       style="display:inline"
       inkscape:label="Livello 1"
       id="layer1-0-0-1"
       transform="matrix(0.05145161,0,0,0.04336578,-16.095926,44.966308)">
      <path
         inkscape:connector-curvature="0"
         style="font-size:732.08221436px;font-style:normal;font-weight:normal;fill:#000000;fill-opacity:1;stroke:none;font-family:Lello"
         d="m 1413.7767,-921.60938 c -55.0617,33.32508 -100,104.45391 -100,168.0625 0,28.79025 19.6119,46.25 44.5,46.25 21.2818,0 37.6413,-12.77436 43.2813,-32.90625 0.7338,-2.61937 1.1382,-3.8125 2.125,-3.8125 1.2789,0 1.875,2.60053 1.875,7.46875 0,19.53831 -11.1099,42.365 -20.0464,68.59375 3.8592,-1.13644 20.6274,-4.03125 28.2651,-4.03125 7.6377,0 24.4067,2.89481 28.2659,4.03125 -8.9364,-26.22875 -20.0471,-49.05544 -20.0471,-68.59375 0,-4.86822 0.5648,-7.46875 1.8437,-7.46875 0.9868,0 1.4225,1.19313 2.1563,3.8125 5.6399,20.13189 21.9995,32.90625 43.2812,32.90625 24.8881,0 44.5,-17.45975 44.5,-46.25 0,-63.60859 -44.9382,-134.73742 -100,-168.0625 z"
         id="path2169-1-1"
         sodipodi:nodetypes="cssssscscsssssc" />
    </g>
    <g
       style="display:inline"
       inkscape:label="Livello 1"
       id="layer1-0-0-1-6"
       transform="matrix(-0.05145161,0,0,-0.04336578,115.88625,105.03369)">
      <path
         inkscape:connector-curvature="0"
         style="font-size:732.08221436px;font-style:normal;font-weight:normal;fill:#000000;fill-opacity:1;stroke:none;font-family:Lello"
         d="m 1413.7767,-921.60938 c -55.0617,33.32508 -100,104.45391 -100,168.0625 0,28.79025 19.6119,46.25 44.5,46.25 21.2818,0 37.6413,-12.77436 43.2813,-32.90625 0.7338,-2.61937 1.1382,-3.8125 2.125,-3.8125 1.2789,0 1.875,2.60053 1.875,7.46875 0,19.53831 -11.1099,42.365 -20.0464,68.59375 3.8592,-1.13644 20.6274,-4.03125 28.2651,-4.03125 7.6377,0 24.4067,2.89481 28.2659,4.03125 -8.9364,-26.22875 -20.0471,-49.05544 -20.0471,-68.59375 0,-4.86822 0.5648,-7.46875 1.8437,-7.46875 0.9868,0 1.4225,1.19313 2.1563,3.8125 5.6399,20.13189 21.9995,32.90625 43.2812,32.90625 24.8881,0 44.5,-17.45975 44.5,-46.25 0,-63.60859 -44.9382,-134.73742 -100,-168.0625 z"
         id="path2169-1-1-6"
         sodipodi:nodetypes="cssssscscsssssc" />
    </g>
  </g>
  <g
     inkscape:groupmode="layer"
     id="layer9"
     inkscape:label="Kreuz"
     style="display:none"
     sodipodi:insensitive="true">
    <path
       id="suit-1"
       d="m 69.99999,60 c -3.94472,0 -7.14624,3.104154 -7.14624,6.928924 0,2.186684 1.05932,4.126643 2.68381,5.407462 0.54844,0.432418 0.31356,0.901879 -0.24508,0.60935 -1.01528,-0.5317 -2.16203,-0.869952 -3.3992,-0.869952 -3.80511,0 -6.89328,2.994255 -6.89328,6.683648 0,3.689373 3.08817,6.683628 6.89328,6.683628 2.53632,0 4.7563,-1.328737 5.94862,-3.311136 0.11654,-0.193772 0.21019,-0.459894 0.37549,-0.459894 0.22607,0 0.33202,0.318916 0.33202,0.915918 0,2.396107 -1.06859,5.195463 -2.64824,8.412052 0.68216,-0.139184 2.74878,-0.494376 4.09882,-0.494376 1.35005,0 3.41665,0.35501 4.09883,0.494376 -1.57965,-3.216589 -2.64823,-6.015945 -2.64823,-8.412052 0,-0.597002 0.10595,-0.915918 0.33201,-0.915918 0.16536,0 0.25899,0.266183 0.3755,0.459894 1.19231,1.982399 3.41229,3.311136 5.94861,3.311136 3.80509,0 6.89329,-2.994255 6.89329,-6.683628 0,-3.689393 -3.0882,-6.683648 -6.89329,-6.683648 -1.23716,0 -2.38394,0.338252 -3.3992,0.869952 -0.55864,0.292529 -0.79351,-0.177053 -0.24507,-0.60935 1.62448,-1.280819 2.6838,-3.220778 2.6838,-5.407462 C 77.14624,63.104154 73.94472,60 69.99999,60 z"
       style="fill:#000000;fill-opacity:1;stroke:none;display:inline"
       inkscape:connector-curvature="0" />
    <use
       height="150"
       width="100"
       x="0"
       y="0"
       xlink:href="#suit-1"
       id="use4668"
       transform="matrix(0.35483871,0,0,0.35483871,31.924787,-16.290323)" />
    <use
       height="150"
       width="100"
       x="0"
       y="0"
       xlink:href="#suit-1"
       id="use4668-0"
       transform="matrix(-0.35483871,0,0,-0.35483871,68.075213,166.29032)" />
  </g>
  <g
     inkscape:groupmode="layer"
     id="layer20"
     inkscape:label="Wert"
     style="display:none"
     sodipodi:insensitive="true">
    <text
       xml:space="preserve"
       style="font-size:43.35664368px;font-style:normal;font-variant:normal;font-weight:normal;font-stretch:normal;line-height:125%;letter-spacing:0px;word-spacing:0px;fill:#aa0000;fill-opacity:1;stroke:none;display:inline;font-family:Futura;-inkscape-font-specification:Futura"
       x="45"
       y="91"
       id="text4651"
       sodipodi:linespacing="125%"><tspan
         sodipodi:role="line"
         id="tspan4653"
         x="45"
         y="91"
         style="font-weight:bold;text-align:end;text-anchor:end;fill:#000000;-inkscape-font-specification:Futura Bold">A</tspan></text>
    <use
       style="display:inline"
       height="150"
       width="100"
       x="0"
       y="0"
       xlink:href="#text4651"
       id="use4670"
       transform="matrix(0.35483871,0,0,0.35483871,31.924788,-16.290323)" />
    <use
       style="display:inline"
       height="150"
       width="100"
       x="0"
       y="0"
       xlink:href="#text4651"
       id="use4670-6"
       transform="matrix(-0.35483871,0,0,-0.35483871,68.075214,166.29032)" />
  </g>
  <g
     inkscape:groupmode="layer"
     id="layer15"
     inkscape:label="10"
     style="display:inline">
    <g
       inkscape:groupmode="layer"
       id="layer17"
       inkscape:label="Karole"
       style="display:none"
       sodipodi:insensitive="true">
      <path
         inkscape:connector-curvature="0"
         id="path3200"
         d="M 80,59.43708 C 77.08959,65.330718 72.79857,70.519605 67,74.937081 72.79857,79.354553 77.08959,84.543442 80,90.43708 82.9104,84.543442 87.20143,79.354553 93,74.937081 87.20143,70.519605 82.9104,65.330718 80,59.43708 z"
         style="fill:#aa0000;fill-opacity:1;stroke:none" />
      <path
         inkscape:connector-curvature="0"
         id="path3200-1"
         d="M 60.612903,4.9999998 C 59.580177,7.0912908 58.057557,8.9325088 56,10.5 c 2.057557,1.56749 3.580177,3.408709 4.612903,5.5 1.032723,-2.091291 2.555346,-3.93251 4.612903,-5.5 -2.057557,-1.5674912 -3.58018,-3.4087092 -4.612903,-5.5000002 z"
         style="fill:#aa0000;fill-opacity:1;stroke:none" />
      <path
         inkscape:connector-curvature="0"
         id="path3200-1-9"
         d="m 39.612903,134 c -1.032726,2.09129 -2.555346,3.93251 -4.612903,5.5 2.057557,1.56749 3.580177,3.40871 4.612903,5.5 1.032723,-2.09129 2.555346,-3.93251 4.612903,-5.5 -2.057557,-1.56749 -3.58018,-3.40871 -4.612903,-5.5 z"
         style="fill:#aa0000;fill-opacity:1;stroke:none" />
    </g>
    <g
       inkscape:groupmode="layer"
       id="layer16"
       inkscape:label="Herzli"
       style="display:inline"
       sodipodi:insensitive="true">
      <g
         id="layer1-9"
         transform="matrix(0.046875,0,0,0.05387304,64.882596,59.58763)"
         style="fill:#aa0000">
        <path
           style="fill:#aa0000"
           id="path2417"
           d="M 297.29747,550.86823 C 283.52243,535.43191 249.1268,505.33855 220.86277,483.99412 137.11867,420.75228 125.72108,411.5999 91.719238,380.29088 29.03471,322.57071 2.413622,264.58086 2.5048478,185.95124 2.5493594,147.56739 5.1656152,132.77929 15.914734,110.15398 34.151433,71.768267 61.014996,43.244667 95.360052,25.799457 119.68545,13.443675 131.6827,7.9542046 172.30448,7.7296236 c 42.49329,-0.234834 51.43863,4.7197234 76.43471,18.4518354 30.42451,16.714318 61.7399,52.435708 68.21323,77.810591 l 3.9981,15.6724 9.85963,-21.584508 c 55.71617,-121.972928 233.59836,-120.148052 295.50229,3.031588 19.63767,39.07605 21.79364,122.51317 4.38012,169.51287 -22.71527,61.30937 -65.38001,108.05053 -164.00634,179.67658 -64.68082,46.97364 -137.88474,118.04586 -142.98067,128.02803 -5.91548,11.58753 -0.28216,1.8159 -26.40808,-27.46078 z"
           inkscape:connector-curvature="0" />
        <g
           id="g2221"
           transform="translate(129.28571,-64.285714)"
           style="fill:#aa0000" />
      </g>
      <g
         id="layer1-9-2"
         transform="matrix(0.01554348,0,0,0.01786399,54.849899,5.11457)"
         style="fill:#aa0000">
        <path
           style="fill:#aa0000"
           id="path2417-5"
           d="M 297.29747,550.86823 C 283.52243,535.43191 249.1268,505.33855 220.86277,483.99412 137.11867,420.75228 125.72108,411.5999 91.719238,380.29088 29.03471,322.57071 2.413622,264.58086 2.5048478,185.95124 2.5493594,147.56739 5.1656152,132.77929 15.914734,110.15398 34.151433,71.768267 61.014996,43.244667 95.360052,25.799457 119.68545,13.443675 131.6827,7.9542046 172.30448,7.7296236 c 42.49329,-0.234834 51.43863,4.7197234 76.43471,18.4518354 30.42451,16.714318 61.7399,52.435708 68.21323,77.810591 l 3.9981,15.6724 9.85963,-21.584508 c 55.71617,-121.972928 233.59836,-120.148052 295.50229,3.031588 19.63767,39.07605 21.79364,122.51317 4.38012,169.51287 -22.71527,61.30937 -65.38001,108.05053 -164.00634,179.67658 -64.68082,46.97364 -137.88474,118.04586 -142.98067,128.02803 -5.91548,11.58753 -0.28216,1.8159 -26.40808,-27.46078 z"
           inkscape:connector-curvature="0" />
        <g
           id="g2221-3"
           transform="translate(129.28571,-64.285714)"
           style="fill:#aa0000" />
      </g>
      <g
         id="layer1-9-2-1"
         transform="matrix(-0.01554348,0,0,-0.01786399,45.150101,144.88543)"
         style="fill:#aa0000">
        <path
           style="fill:#aa0000"
           id="path2417-5-0"
           d="M 297.29747,550.86823 C 283.52243,535.43191 249.1268,505.33855 220.86277,483.99412 137.11867,420.75228 125.72108,411.5999 91.719238,380.29088 29.03471,322.57071 2.413622,264.58086 2.5048478,185.95124 2.5493594,147.56739 5.1656152,132.77929 15.914734,110.15398 34.151433,71.768267 61.014996,43.244667 95.360052,25.799457 119.68545,13.443675 131.6827,7.9542046 172.30448,7.7296236 c 42.49329,-0.234834 51.43863,4.7197234 76.43471,18.4518354 30.42451,16.714318 61.7399,52.435708 68.21323,77.810591 l 3.9981,15.6724 9.85963,-21.584508 c 55.71617,-121.972928 233.59836,-120.148052 295.50229,3.031588 19.63767,39.07605 21.79364,122.51317 4.38012,169.51287 -22.71527,61.30937 -65.38001,108.05053 -164.00634,179.67658 -64.68082,46.97364 -137.88474,118.04586 -142.98067,128.02803 -5.91548,11.58753 -0.28216,1.8159 -26.40808,-27.46078 z"
           inkscape:connector-curvature="0" />
        <g
           id="g2221-3-8"
           transform="translate(129.28571,-64.285714)"
           style="fill:#aa0000" />
      </g>
    </g>
    <g
       inkscape:groupmode="layer"
       id="layer18"
       inkscape:label="Pikel"
       style="display:none"
       sodipodi:insensitive="true">
      <g
         inkscape:label="Livello 1"
         id="layer1-0"
         transform="matrix(0.145,0,0,0.12221264,-125.49762,172.63232)">
        <path
           inkscape:connector-curvature="0"
           style="font-size:732.08221436px;font-style:normal;font-weight:normal;fill:#000000;fill-opacity:1;stroke:none;font-family:Lello"
           d="m 1413.7767,-921.60938 c -55.0617,33.32508 -100,104.45391 -100,168.0625 0,28.79025 19.6119,46.25 44.5,46.25 21.2818,0 37.6413,-12.77436 43.2813,-32.90625 0.7338,-2.61937 1.1382,-3.8125 2.125,-3.8125 1.2789,0 1.875,2.60053 1.875,7.46875 0,19.53831 -11.1099,42.365 -20.0464,68.59375 3.8592,-1.13644 20.6274,-4.03125 28.2651,-4.03125 7.6377,0 24.4067,2.89481 28.2659,4.03125 -8.9364,-26.22875 -20.0471,-49.05544 -20.0471,-68.59375 0,-4.86822 0.5648,-7.46875 1.8437,-7.46875 0.9868,0 1.4225,1.19313 2.1563,3.8125 5.6399,20.13189 21.9995,32.90625 43.2812,32.90625 24.8881,0 44.5,-17.45975 44.5,-46.25 0,-63.60859 -44.9382,-134.73742 -100,-168.0625 z"
           id="path2169"
           sodipodi:nodetypes="cssssscscsssssc" />
      </g>
      <g
         style="display:inline"
         inkscape:label="Livello 1"
         id="layer1-0-1"
         transform="matrix(0.05145161,0,0,0.04336578,-12.595926,44.966308)">
        <path
           inkscape:connector-curvature="0"
           style="font-size:732.08221436px;font-style:normal;font-weight:normal;fill:#000000;fill-opacity:1;stroke:none;font-family:Lello"
           d="m 1413.7767,-921.60938 c -55.0617,33.32508 -100,104.45391 -100,168.0625 0,28.79025 19.6119,46.25 44.5,46.25 21.2818,0 37.6413,-12.77436 43.2813,-32.90625 0.7338,-2.61937 1.1382,-3.8125 2.125,-3.8125 1.2789,0 1.875,2.60053 1.875,7.46875 0,19.53831 -11.1099,42.365 -20.0464,68.59375 3.8592,-1.13644 20.6274,-4.03125 28.2651,-4.03125 7.6377,0 24.4067,2.89481 28.2659,4.03125 -8.9364,-26.22875 -20.0471,-49.05544 -20.0471,-68.59375 0,-4.86822 0.5648,-7.46875 1.8437,-7.46875 0.9868,0 1.4225,1.19313 2.1563,3.8125 5.6399,20.13189 21.9995,32.90625 43.2812,32.90625 24.8881,0 44.5,-17.45975 44.5,-46.25 0,-63.60859 -44.9382,-134.73742 -100,-168.0625 z"
           id="path2169-3"
           sodipodi:nodetypes="cssssscscsssssc" />
      </g>
      <g
         style="display:inline"
         inkscape:label="Livello 1"
         id="layer1-0-1-1"
         transform="matrix(-0.05145161,0,0,-0.04336578,112.88625,105.03369)">
        <path
           inkscape:connector-curvature="0"
           style="font-size:732.08221436px;font-style:normal;font-weight:normal;fill:#000000;fill-opacity:1;stroke:none;font-family:Lello"
           d="m 1413.7767,-921.60938 c -55.0617,33.32508 -100,104.45391 -100,168.0625 0,28.79025 19.6119,46.25 44.5,46.25 21.2818,0 37.6413,-12.77436 43.2813,-32.90625 0.7338,-2.61937 1.1382,-3.8125 2.125,-3.8125 1.2789,0 1.875,2.60053 1.875,7.46875 0,19.53831 -11.1099,42.365 -20.0464,68.59375 3.8592,-1.13644 20.6274,-4.03125 28.2651,-4.03125 7.6377,0 24.4067,2.89481 28.2659,4.03125 -8.9364,-26.22875 -20.0471,-49.05544 -20.0471,-68.59375 0,-4.86822 0.5648,-7.46875 1.8437,-7.46875 0.9868,0 1.4225,1.19313 2.1563,3.8125 5.6399,20.13189 21.9995,32.90625 43.2812,32.90625 24.8881,0 44.5,-17.45975 44.5,-46.25 0,-63.60859 -44.9382,-134.73742 -100,-168.0625 z"
           id="path2169-3-1"
           sodipodi:nodetypes="cssssscscsssssc" />
      </g>
    </g>
    <g
       inkscape:groupmode="layer"
       id="layer19"
       inkscape:label="Kreuzerl"
       style="display:none"
       sodipodi:insensitive="true">
      <path
         id="suit"
         d="m 79.99999,60 c -3.94472,0 -7.14624,3.104154 -7.14624,6.928924 0,2.186684 1.05932,4.126643 2.68381,5.407462 0.54844,0.432418 0.31356,0.901879 -0.24508,0.60935 -1.01528,-0.5317 -2.16203,-0.869952 -3.3992,-0.869952 -3.80511,0 -6.89328,2.994255 -6.89328,6.683648 0,3.689373 3.08817,6.683628 6.89328,6.683628 2.53632,0 4.7563,-1.328737 5.94862,-3.311136 0.11654,-0.193772 0.21019,-0.459894 0.37549,-0.459894 0.22607,0 0.33202,0.318916 0.33202,0.915918 0,2.396107 -1.06859,5.195463 -2.64824,8.412052 0.68216,-0.139184 2.74878,-0.494376 4.09882,-0.494376 1.35005,0 3.41665,0.35501 4.09883,0.494376 -1.57965,-3.216589 -2.64823,-6.015945 -2.64823,-8.412052 0,-0.597002 0.10595,-0.915918 0.33201,-0.915918 0.16536,0 0.25899,0.266183 0.3755,0.459894 1.19231,1.982399 3.41229,3.311136 5.94861,3.311136 3.80509,0 6.89329,-2.994255 6.89329,-6.683628 0,-3.689393 -3.0882,-6.683648 -6.89329,-6.683648 -1.23716,0 -2.38394,0.338252 -3.3992,0.869952 -0.55864,0.292529 -0.79351,-0.177053 -0.24507,-0.60935 1.62448,-1.280819 2.6838,-3.220778 2.6838,-5.407462 C 87.14624,63.104154 83.94472,60 79.99999,60 z"
         style="fill:#000000;fill-opacity:1;stroke:none"
         inkscape:connector-curvature="0" />
      <path
         id="suit-7"
         d="m 60.322573,4.9999997 c -1.399739,0 -2.535762,1.101474 -2.535762,2.45865 0,0.775921 0.375887,1.464293 0.952319,1.918777 0.194608,0.153439 0.111263,0.320022 -0.08696,0.216221 C 58.29191,9.4049807 57.884998,9.2849557 57.446003,9.2849557 56.095802,9.2849557 55,10.347433 55,11.656573 c 0,1.309132 1.095802,2.37161 2.446003,2.37161 0.899984,0 1.687719,-0.471488 2.1108,-1.17492 0.04135,-0.06876 0.07458,-0.163188 0.133239,-0.163188 0.08022,0 0.117813,0.113164 0.117813,0.325003 0,0.850232 -0.379177,1.843552 -0.939698,2.984922 0.242057,-0.04939 0.975374,-0.175424 1.45442,-0.175424 0.47905,0 1.21236,0.125972 1.454424,0.175424 -0.560521,-1.14137 -0.939695,-2.13469 -0.939695,-2.984922 0,-0.211839 0.03759,-0.325003 0.11781,-0.325003 0.05868,0 0.0919,0.09445 0.133242,0.163188 0.423078,0.703432 1.210813,1.17492 2.110797,1.17492 1.350193,0 2.446007,-1.062478 2.446007,-2.37161 0,-1.30914 -1.095814,-2.3716173 -2.446007,-2.3716173 -0.438992,0 -0.845914,0.120025 -1.206168,0.308692 -0.198227,0.103801 -0.281568,-0.06283 -0.08696,-0.216221 0.576428,-0.454484 0.952316,-1.142856 0.952316,-1.918777 0,-1.357176 -1.136023,-2.45865 -2.535766,-2.45865 z"
         style="fill:#000000;fill-opacity:1;stroke:none;display:inline"
         inkscape:connector-curvature="0" />
      <path
         id="suit-7-5"
         d="m 40.32255,145 c 1.39974,0 2.53576,-1.10147 2.53576,-2.45865 0,-0.77592 -0.37589,-1.46429 -0.95232,-1.91878 -0.19461,-0.15344 -0.11126,-0.32002 0.087,-0.21622 0.36026,0.18867 0.76717,0.30869 1.20617,0.30869 1.3502,0 2.446,-1.06247 2.446,-2.37161 0,-1.30913 -1.0958,-2.37161 -2.446,-2.37161 -0.89999,0 -1.68772,0.47149 -2.1108,1.17492 -0.0414,0.0688 -0.0746,0.16319 -0.13324,0.16319 -0.0802,0 -0.11781,-0.11317 -0.11781,-0.32501 0,-0.85023 0.37917,-1.84355 0.93969,-2.98492 -0.24205,0.0494 -0.97537,0.17543 -1.45442,0.17543 -0.47905,0 -1.21236,-0.12598 -1.45442,-0.17543 0.56052,1.14137 0.93969,2.13469 0.93969,2.98492 0,0.21184 -0.0376,0.32501 -0.11781,0.32501 -0.0587,0 -0.0919,-0.0944 -0.13324,-0.16319 -0.42308,-0.70343 -1.21081,-1.17492 -2.11079,-1.17492 -1.3502,0 -2.44601,1.06248 -2.44601,2.37161 0,1.30914 1.09581,2.37161 2.44601,2.37161 0.43899,0 0.84591,-0.12002 1.20616,-0.30869 0.19823,-0.1038 0.28157,0.0628 0.087,0.21622 -0.57642,0.45449 -0.95231,1.14286 -0.95231,1.91878 0,1.35718 1.13602,2.45865 2.53576,2.45865 z"
         style="fill:#000000;fill-opacity:1;stroke:none;display:inline"
         inkscape:connector-curvature="0" />
    </g>
    <text
       xml:space="preserve"
       style="font-size:20.65626526000000140px;font-style:normal;font-variant:normal;font-weight:normal;font-stretch:normal;text-align:center;line-height:125%;letter-spacing:0px;word-spacing:0px;text-anchor:middle;fill:#aa0000;fill-opacity:1;stroke:none;display:inline;font-family:Ubuntu Mono;-inkscape-font-specification:Ubuntu Mono"
       x="29.595348"
       y="91"
       id="value"
       sodipodi:linespacing="125%"><tspan
         sodipodi:role="line"
         x="29.595348"
         y="91"
         style="font-size:44.75524139000000190px;font-style:normal;font-variant:normal;font-weight:bold;font-stretch:normal;text-align:center;text-anchor:middle;fill:#aa0000;font-family:Futura Md BT;-inkscape-font-specification:Futura Md BT Bold"
         id="tspan3892">10</tspan></text>
    <text
       xml:space="preserve"
       style="font-size:6.84949826999999978px;font-style:normal;font-variant:normal;font-weight:normal;font-stretch:normal;text-align:center;line-height:125%;letter-spacing:0px;word-spacing:0px;text-anchor:middle;fill:#aa0000;fill-opacity:1;stroke:none;display:inline;font-family:Ubuntu Mono;-inkscape-font-specification:Ubuntu Mono"
       x="43.148846"
       y="15.717392"
       id="value-5"
       sodipodi:linespacing="125%"><tspan
         sodipodi:role="line"
         x="43.148846"
         y="15.717392"
         style="font-size:14.84057999000000017px;font-style:normal;font-variant:normal;font-weight:bold;font-stretch:normal;text-align:center;text-anchor:middle;fill:#aa0000;font-family:Futura Md BT;-inkscape-font-specification:Futura Md BT Bold"
         id="tspan3892-5">10</tspan></text>
    <text
       xml:space="preserve"
       style="font-size:6.84949826999999978px;font-style:normal;font-variant:normal;font-weight:normal;font-stretch:normal;text-align:center;line-height:125%;letter-spacing:0px;word-spacing:0px;text-anchor:middle;fill:#aa0000;fill-opacity:1;stroke:none;display:inline;font-family:Ubuntu Mono;-inkscape-font-specification:Ubuntu Mono"
       x="-56.851147"
       y="-134.28261"
       id="value-5-9"
       sodipodi:linespacing="125%"
       transform="scale(-1,-1)"><tspan
         sodipodi:role="line"
         x="-56.851147"
         y="-134.28261"
         style="font-size:14.84057999000000017px;font-style:normal;font-variant:normal;font-weight:bold;font-stretch:normal;text-align:center;text-anchor:middle;fill:#aa0000;font-family:Futura Md BT;-inkscape-font-specification:Futura Md BT Bold"
         id="tspan3892-5-9">10</tspan></text>
  </g>
</svg>
